Term,Estimate,Std Error,t Ratio,Prob>|t|
Intercept,103.61767016,2.0413070987,50.76,<.0001
SCF,16.820739495,2.2644435481,7.43,<.0001
IL-3,13.826735425,2.2644435481,6.11,<.0001
TNFa,17.594339479,2.2644435481,7.77,<.0001
SCF*TNFa,4.7054501208,2.631045645,1.79,0.0803
IL-3*TNFa,2.4895778285,2.631045645,0.95,0.3490
Block[1],14.278835213,2.8033697527,5.09,<.0001
Block[2],1.7624824028,2.8378151783,0.62,0.5376
